%YAML 1.1
%TAG !u! tag:unity3d.com,2011:
--- !u!74 &7400000
AnimationClip:
  m_ObjectHideFlags: 0
  m_CorrespondingSourceObject: {fileID: 0}
  m_PrefabInstance: {fileID: 0}
  m_PrefabAsset: {fileID: 0}
  m_Name: Rock Circulation 1
  serializedVersion: 6
  m_Legacy: 0
  m_Compressed: 0
  m_UseHighQualityCurve: 1
  m_RotationCurves: []
  m_CompressedRotationCurves: []
  m_EulerCurves:
  - curve:
      serializedVersion: 2
      m_Curve:
      - serializedVersion: 3
        time: 0
        value: {x: 0, y: 0, z: 0}
        inSlope: {x: 1.0306941, y: 3.1760514, z: 20.585043}
        outSlope: {x: 1.0306941, y: 3.1760514, z: 20.585043}
        tangentMode: 0
        weightedMode: 0
        inWeight: {x: 0.33333334, y: 0.33333334, z: 0.33333334}
        outWeight: {x: 0.11099199, y: 0.106625535, z: 0.298685}
      - serializedVersion: 3
        time: 2.4333334
        value: {x: 149.68748, y: 59.879776, z: 180.43416}
        inSlope: {x: 9.291215, y: 3.574981, z: 2.2347887}
        outSlope: {x: 9.291215, y: 3.574981, z: 2.2347887}
        tangentMode: 0
        weightedMode: 0
        inWeight: {x: 0.33333334, y: 0.33333334, z: 0.08608723}
        outWeight: {x: 0.33333334, y: 0.33333334, z: 0.33333334}
      - serializedVersion: 3
        time: 2.5
        value: {x: 150, y: 60, z: 180.20576}
        inSlope: {x: 0, y: 0, z: -8.985978}
        outSlope: {x: 0, y: 0, z: -8.985978}
        tangentMode: 0
        weightedMode: 0
        inWeight: {x: 0.33333334, y: 0.33333334, z: 0.33333334}
        outWeight: {x: 0.33333334, y: 0.33333334, z: 0.33333334}
      - serializedVersion: 3
        time: 4.9666667
        value: {x: 0.06758371, y: 0.069500685, z: 0.25404024}
        inSlope: {x: -5.223396, y: -3.8379948, z: 1.1007435}
        outSlope: {x: -5.223396, y: 0, z: 1.1007435}
        tangentMode: 0
        weightedMode: 0
        inWeight: {x: 0.33333334, y: 0.22948606, z: 0.33333334}
        outWeight: {x: 0.33333334, y: 0.33333334, z: 0.33333334}
      - serializedVersion: 3
        time: 4.983333
        value: {x: 0, y: 0.069500685, z: 0.29640198}
        inSlope: {x: -2.8845084, y: 0, z: 3.9854543}
        outSlope: {x: -2.8845084, y: 0, z: 3.9854543}
        tangentMode: 0
        weightedMode: 0
        inWeight: {x: 0.10734099, y: 0.33333334, z: 0.49861214}
        outWeight: {x: 0.33333334, y: 0.33333334, z: 0.33333334}
      m_PreInfinity: 2
      m_PostInfinity: 2
      m_RotationOrder: 4
    path: 
  m_PositionCurves:
  - curve:
      serializedVersion: 2
      m_Curve:
      - serializedVersion: 3
        time: 0
        value: {x: -18.1, y: 1.94, z: 0}
        inSlope: {x: 0, y: 1.9667023, z: 0}
        outSlope: {x: 0, y: 1.9667023, z: 0}
        tangentMode: 0
        weightedMode: 0
        inWeight: {x: 0.33333334, y: 0.33333334, z: 0.33333334}
        outWeight: {x: 0.33333334, y: 0.5349533, z: 0.33333334}
      - serializedVersion: 3
        time: 0.76666665
        value: {x: -14.818569, y: 3.4831824, z: -0.33452442}
        inSlope: {x: 6.479808, y: 2.424, z: 0.56100345}
        outSlope: {x: 6.479808, y: 2.424, z: 0.56100345}
        tangentMode: 0
        weightedMode: 0
        inWeight: {x: 0.33333334, y: 0.33333334, z: 0.33333334}
        outWeight: {x: 0.33333334, y: 0.33333334, z: 0.33333334}
      - serializedVersion: 3
        time: 1
        value: {x: -13.343112, y: 4.1302705, z: 0}
        inSlope: {x: 5.974263, y: 3.0719492, z: 2.4391465}
        outSlope: {x: 5.974263, y: 3.0719492, z: 2.4391465}
        tangentMode: 0
        weightedMode: 0
        inWeight: {x: 0.33333334, y: 0.33333334, z: 0.33333334}
        outWeight: {x: 0.33333334, y: 0.33333334, z: 0.43417382}
      - serializedVersion: 3
        time: 1.1333333
        value: {x: -12.596216, y: 4.5565743, z: 0.4099664}
        inSlope: {x: 5.1662498, y: 3.306118, z: 3.6643267}
        outSlope: {x: 5.1662498, y: 3.306118, z: 3.6643267}
        tangentMode: 0
        weightedMode: 0
        inWeight: {x: 0.33333334, y: 0.33333334, z: 0.33333334}
        outWeight: {x: 0.33333334, y: 0.33333334, z: 0.33333334}
      - serializedVersion: 3
        time: 2.35
        value: {x: -5.9593143, y: 7.933119, z: 6.2403364}
        inSlope: {x: 0, y: 0.8708727, z: 2.0876665}
        outSlope: {x: 0, y: 0.8708727, z: 2.0876665}
        tangentMode: 0
        weightedMode: 0
        inWeight: {x: 0.33333334, y: 0.33333334, z: 0.33333334}
        outWeight: {x: 0.33333334, y: 0.33333334, z: 0.33333334}
      - serializedVersion: 3
        time: 2.5
        value: {x: -6, y: 8, z: 6.423867}
        inSlope: {x: -0.061800998, y: 0, z: 0.30115896}
        outSlope: {x: -0.061800998, y: 0, z: 0.30115896}
        tangentMode: 0
        weightedMode: 0
        inWeight: {x: 0.33333334, y: 0.33333334, z: 0.33333334}
        outWeight: {x: 0.33333334, y: 0.33333334, z: 0.33333334}
      - serializedVersion: 3
        time: 2.5333333
        value: {x: -6.008487, y: 7.997446, z: 6.426546}
        inSlope: {x: -0.44566342, y: -0.15263069, z: -0.14330637}
        outSlope: {x: -0.44566342, y: -0.15263069, z: -0.14330637}
        tangentMode: 0
        weightedMode: 0
        inWeight: {x: 0.33333334, y: 0.33333334, z: 0.3325356}
        outWeight: {x: 0.33333334, y: 0.33333334, z: 0.33333334}
      - serializedVersion: 3
        time: 4.983333
        value: {x: -18.1, y: 1.9728317, z: 0.00086038903}
        inSlope: {x: 0, y: -1.5286918, z: -0.1029929}
        outSlope: {x: 0, y: 0, z: -0.1029929}
        tangentMode: 0
        weightedMode: 0
        inWeight: {x: 0.33333334, y: 0.14328292, z: 0.33333334}
        outWeight: {x: 0.33333334, y: 0.33333334, z: 0.33333334}
      - serializedVersion: 3
        time: 5
        value: {x: -18.1, y: 1.9728317, z: 0}
        inSlope: {x: 0, y: 0, z: 0}
        outSlope: {x: 0, y: 0, z: 0}
        tangentMode: 0
        weightedMode: 0
        inWeight: {x: 0.33333334, y: 0.33333334, z: 0.33333334}
        outWeight: {x: 0.33333334, y: 0.33333334, z: 0.33333334}
      m_PreInfinity: 2
      m_PostInfinity: 2
      m_RotationOrder: 4
    path: 
  m_ScaleCurves: []
  m_FloatCurves: []
  m_PPtrCurves: []
  m_SampleRate: 60
  m_WrapMode: 0
  m_Bounds:
    m_Center: {x: 0, y: 0, z: 0}
    m_Extent: {x: 0, y: 0, z: 0}
  m_ClipBindingConstant:
    genericBindings:
    - serializedVersion: 2
      path: 0
      attribute: 1
      script: {fileID: 0}
      typeID: 4
      customType: 0
      isPPtrCurve: 0
    - serializedVersion: 2
      path: 0
      attribute: 4
      script: {fileID: 0}
      typeID: 4
      customType: 4
      isPPtrCurve: 0
    pptrCurveMapping: []
  m_AnimationClipSettings:
    serializedVersion: 2
    m_AdditiveReferencePoseClip: {fileID: 0}
    m_AdditiveReferencePoseTime: 0
    m_StartTime: 0
    m_StopTime: 5
    m_OrientationOffsetY: 0
    m_Level: 0
    m_CycleOffset: 0
    m_HasAdditiveReferencePose: 0
    m_LoopTime: 1
    m_LoopBlend: 0
    m_LoopBlendOrientation: 0
    m_LoopBlendPositionY: 0
    m_LoopBlendPositionXZ: 0
    m_KeepOriginalOrientation: 0
    m_KeepOriginalPositionY: 1
    m_KeepOriginalPositionXZ: 0
    m_HeightFromFeet: 0
    m_Mirror: 0
  m_EditorCurves:
  - curve:
      serializedVersion: 2
      m_Curve:
      - serializedVersion: 3
        time: 0
        value: -18.1
        inSlope: 0
        outSlope: 0
        tangentMode: 136
        weightedMode: 0
        inWeight: 0.33333334
        outWeight: 0.33333334
      - serializedVersion: 3
        time: 1.1333333
        value: -12.596216
        inSlope: 5.1662498
        outSlope: 5.1662498
        tangentMode: 136
        weightedMode: 0
        inWeight: 0.33333334
        outWeight: 0.33333334
      - serializedVersion: 3
        time: 2.35
        value: -5.9593143
        inSlope: 0
        outSlope: 0
        tangentMode: 136
        weightedMode: 0
        inWeight: 0.33333334
        outWeight: 0.33333334
      - serializedVersion: 3
        time: 2.5
        value: -6
        inSlope: -0.061800998
        outSlope: -0.061800998
        tangentMode: 136
        weightedMode: 0
        inWeight: 0.33333334
        outWeight: 0.33333334
      - serializedVersion: 3
        time: 4.983333
        value: -18.1
        inSlope: 0
        outSlope: 0
        tangentMode: 136
        weightedMode: 0
        inWeight: 0.33333334
        outWeight: 0.33333334
      m_PreInfinity: 2
      m_PostInfinity: 2
      m_RotationOrder: 4
    attribute: m_LocalPosition.x
    path: 
    classID: 4
    script: {fileID: 0}
  - curve:
      serializedVersion: 2
      m_Curve:
      - serializedVersion: 3
        time: 0
        value: 1.94
        inSlope: 1.9667023
        outSlope: 1.9667023
        tangentMode: 0
        weightedMode: 0
        inWeight: 0.33333334
        outWeight: 0.5349533
      - serializedVersion: 3
        time: 0.76666665
        value: 3.4831824
        inSlope: 2.424
        outSlope: 2.424
        tangentMode: 136
        weightedMode: 0
        inWeight: 0.33333334
        outWeight: 0.33333334
      - serializedVersion: 3
        time: 2.5
        value: 8
        inSlope: 0
        outSlope: 0
        tangentMode: 136
        weightedMode: 0
        inWeight: 0.33333334
        outWeight: 0.33333334
      - serializedVersion: 3
        time: 4.983333
        value: 1.9728317
        inSlope: -1.5286918
        outSlope: -1.5286918
        tangentMode: 0
        weightedMode: 0
        inWeight: 0.14328292
        outWeight: 0.33333334
      m_PreInfinity: 2
      m_PostInfinity: 2
      m_RotationOrder: 4
    attribute: m_LocalPosition.y
    path: 
    classID: 4
    script: {fileID: 0}
  - curve:
      serializedVersion: 2
      m_Curve:
      - serializedVersion: 3
        time: 0
        value: 0
        inSlope: 0
        outSlope: 0
        tangentMode: 136
        weightedMode: 0
        inWeight: 0.33333334
        outWeight: 0.33333334
      - serializedVersion: 3
        time: 1
        value: 0
        inSlope: 2.4391465
        outSlope: 2.4391465
        tangentMode: 0
        weightedMode: 0
        inWeight: 0.33333334
        outWeight: 0.43417382
      - serializedVersion: 3
        time: 2.5333333
        value: 6.426546
        inSlope: -0.14330637
        outSlope: -0.14330637
        tangentMode: 0
        weightedMode: 0
        inWeight: 0.3325356
        outWeight: 0.33333334
      - serializedVersion: 3
        time: 5
        value: 0
        inSlope: 0
        outSlope: 0
        tangentMode: 136
        weightedMode: 0
        inWeight: 0.33333334
        outWeight: 0.33333334
      m_PreInfinity: 2
      m_PostInfinity: 2
      m_RotationOrder: 4
    attribute: m_LocalPosition.z
    path: 
    classID: 4
    script: {fileID: 0}
  - curve:
      serializedVersion: 2
      m_Curve:
      - serializedVersion: 3
        time: 0
        value: 0
        inSlope: 1.0306941
        outSlope: 1.0306941
        tangentMode: 0
        weightedMode: 0
        inWeight: 0.33333334
        outWeight: 0.11099199
      - serializedVersion: 3
        time: 2.5
        value: 150
        inSlope: 0
        outSlope: 0
        tangentMode: 0
        weightedMode: 0
        inWeight: 0.33333334
        outWeight: 0.33333334
      - serializedVersion: 3
        time: 4.983333
        value: 0
        inSlope: -2.8845084
        outSlope: -2.8845084
        tangentMode: 0
        weightedMode: 0
        inWeight: 0.10734099
        outWeight: 0.33333334
      m_PreInfinity: 2
      m_PostInfinity: 2
      m_RotationOrder: 4
    attribute: localEulerAnglesRaw.x
    path: 
    classID: 4
    script: {fileID: 0}
  - curve:
      serializedVersion: 2
      m_Curve:
      - serializedVersion: 3
        time: 0
        value: 0
        inSlope: 3.1760514
        outSlope: 3.1760514
        tangentMode: 0
        weightedMode: 0
        inWeight: 0.33333334
        outWeight: 0.106625535
      - serializedVersion: 3
        time: 2.5
        value: 60
        inSlope: 0
        outSlope: 0
        tangentMode: 0
        weightedMode: 0
        inWeight: 0.33333334
        outWeight: 0.33333334
      - serializedVersion: 3
        time: 4.9666667
        value: 0.069500685
        inSlope: -3.8379948
        outSlope: -3.8379948
        tangentMode: 0
        weightedMode: 0
        inWeight: 0.22948606
        outWeight: 0.33333334
      m_PreInfinity: 2
      m_PostInfinity: 2
      m_RotationOrder: 4
    attribute: localEulerAnglesRaw.y
    path: 
    classID: 4
    script: {fileID: 0}
  - curve:
      serializedVersion: 2
      m_Curve:
      - serializedVersion: 3
        time: 0
        value: 0
        inSlope: 20.585043
        outSlope: 20.585043
        tangentMode: 0
        weightedMode: 0
        inWeight: 0.33333334
        outWeight: 0.298685
      - serializedVersion: 3
        time: 2.4333334
        value: 180.43416
        inSlope: 2.2347887
        outSlope: 2.2347887
        tangentMode: 0
        weightedMode: 0
        inWeight: 0.08608723
        outWeight: 0.33333334
      - serializedVersion: 3
        time: 4.983333
        value: 0.29640198
        inSlope: 3.9854543
        outSlope: 3.9854543
        tangentMode: 0
        weightedMode: 0
        inWeight: 0.49861214
        outWeight: 0.33333334
      m_PreInfinity: 2
      m_PostInfinity: 2
      m_RotationOrder: 4
    attribute: localEulerAnglesRaw.z
    path: 
    classID: 4
    script: {fileID: 0}
  m_EulerEditorCurves:
  - curve:
      serializedVersion: 2
      m_Curve: []
      m_PreInfinity: 2
      m_PostInfinity: 2
      m_RotationOrder: 4
    attribute: m_LocalEulerAngles.x
    path: 
    classID: 4
    script: {fileID: 0}
  - curve:
      serializedVersion: 2
      m_Curve: []
      m_PreInfinity: 2
      m_PostInfinity: 2
      m_RotationOrder: 4
    attribute: m_LocalEulerAngles.y
    path: 
    classID: 4
    script: {fileID: 0}
  - curve:
      serializedVersion: 2
      m_Curve: []
      m_PreInfinity: 2
      m_PostInfinity: 2
      m_RotationOrder: 4
    attribute: m_LocalEulerAngles.z
    path: 
    classID: 4
    script: {fileID: 0}
  m_HasGenericRootTransform: 1
  m_HasMotionFloatCurves: 0
  m_Events: []
