%YAML 1.1
%TAG !u! tag:unity3d.com,2011:
--- !u!162 &1
EditorUserSettings:
  m_ObjectHideFlags: 0
  serializedVersion: 4
  m_ConfigSettings:
    RecentlyUsedScenePath-0:
      value: 22424703114646680e0b0227036c70050205176a6168003923281173f1e33136e7a923e7ee2e26
      flags: 0
    RecentlyUsedScenePath-1:
      value: 22424703114646680e0b0227036c7a1e12340a2f282132231e2a183de7ae2136ebf32f
      flags: 0
    RecentlyUsedScenePath-2:
      value: 22424703114646680e0b0227036c771f1b1258033f24273e29694c7df7ee3d2cfb
      flags: 0
    RecentlyUsedScenePath-3:
      value: 22424703114646680e0b0227036c771f1b1258033f24273e29695073d1f43b2aefa923e7ee2e26
      flags: 0
    RecentlyUsedScenePath-4:
      value: 22424703114646680e0b0227036c7c11001258622127223521605326ece92021
      flags: 0
    RecentlyUsedScenePath-5:
      value: 224247031146465702194c321f2f465006161b21630934352c694c66a2c92734e3e932a7f234362820
      flags: 0
    RecentlyUsedScenePath-6:
      value: 22424703114646680e0b0227036c761e02051765052632222267083debf42d
      flags: 0
    RecentlyUsedScenePath-7:
      value: 22424703114646680e0b0227036c7d051415142f3f680f2321281337acf53a31f6fe
      flags: 0
    RecentlyUsedScenePath-8:
      value: 22424703114646680e0b0227036c6a1e05031928202d66193e251c3de6ae2136ebf32f
      flags: 0
    RecentlyUsedScenePath-9:
      value: 22424703114646680e0b0227036c6d11121e172b2f3c2f2628693420eee13a3ca2b678fce9332b25
      flags: 0
    vcSharedLogLevel:
      value: 0d5e400f0650
      flags: 0
  m_VCAutomaticAdd: 1
  m_VCDebugCom: 0
  m_VCDebugCmd: 0
  m_VCDebugOut: 0
  m_SemanticMergeMode: 2
  m_VCShowFailedCheckout: 1
  m_VCOverwriteFailedCheckoutAssets: 1
  m_VCProjectOverlayIcons: 1
  m_VCHierarchyOverlayIcons: 1
  m_VCOtherOverlayIcons: 1
  m_VCAllowAsyncUpdate: 1
